Cross-Validated Covariance Matrix Estimator Selector — cvCovEst • cvCovEst
…
#> $estimator
#> [1] "thresholdingEst, gamma = 0.3"
#> 
#> $risk_df
#> # A tibble: 5 × 3
#>   estimator         hyperparameters      cv_risk
#>   <chr>             <chr>                  <dbl>
#> 1 thresholdingEst   gamma = 0.3             52.4
#> 2 sampleCovEst      hyperparameters = NA    52.6
#> 3 linearShrinkLWEst hyperparameters = NA    52.6
#> 4 thresholdingEst   gamma = 0.1             52.9
#> 5 thresholdingEst   gamma = 0.2             53.4
#> 
#> $cv_df
#> # A tibble: 50 × 4
#>    estimator         hyperparameters       loss  fold
#>    <chr>             <chr>                <dbl> <int>
#>  1 linearShrinkLWEst hyperparameters = NA  44.5     1
#>  2 thresholdingEst   gamma = 0.1           47.6     1
#>  3 thresholdingEst   gamma = 0.2           47.8     1
#>  4 thresholdingEst   gamma = 0.3           46.1     1
#>  5 sampleCovEst      hyperparameters = NA  47.1     1
#>  6 linearShrinkLWEst hyperparameters = NA  37.1     2
#>  7 thresholdingEst   gamma = 0.1           42.5     2
#>  8 thresholdingEst   gamma = 0.2           42.9     2
#>  9 thresholdingEst   gamma = 0.3           41.6     2
#> 10 sampleCovEst      hyperparameters = NA  42.5     2
#> # … with 40 more rows
…
